{
    "count": 81,
    "next": "http://localhost:8000/api/v1/products/get?limit=25&offset=25",
    "previous": null,
    "results": [
      {
        "id": 1,
        "slug": "bridget-burke",
        "name": "Бриджит Берк",
        "price_per_night": 373,
        "owner": {
          "id": 11,
          "email": "tiffany29@example.org",
          "first_name": "Margaret",
          "last_name": "Moss",
          "middle_name": "cup",
          "phone_number": "001-791-810-1578",
          "avatar": null
        },
        "country": "Казахстан",
        "city": "Алматы",
        "district": "Ист Николь",
        "address": "982 Carter Cove Suite 678\nСандовалхейвен, Джорджия 88875",
        "is_favorite": false,
        "rating": 2.875,
        "like_count": 5,
        "is_new": false,
        "best_product": false,
        "promotion": false,
        "is_active": true,
        "images": [
          {
            "id": 2,
            "original": "http://localhost:8000/media/images/original/2024/12/02/f90b7566-f2be-4a4b-9a12-95e2d6379096.webp",
            "thumbnail": "http://localhost:8000/media/images/thumbnail/2024/12/02/1e55df5a-2061-4077-95de-2e86023e40af.webp",
            "width": 2560,
            "height": 1440,
            "mimetype": "webp",
            "is_label": true
          },
          {
            "id": 15,
            "original": "http://localhost:8000/media/images/original/2024/12/02/117780eb-dde4-407d-8bd1-8cb4699eff7f.webp",
            "thumbnail": "http://localhost:8000/media/images/thumbnail/2024/12/02/9e4369f9-f31a-4fb4-a1b5-679023d96cc2.webp",
            "width": 1422,
            "height": 750,
            "mimetype": "webp",
            "is_label": false
          },
          {
            "id": 14,
            "original": "http://localhost:8000/media/images/original/2024/12/02/a45ce235-f447-4255-94c8-10ebf4d66881.webp",
            "thumbnail": "http://localhost:8000/media/images/thumbnail/2024/12/02/c261ba10-c57b-4c65-a9ee-7a1c338a8a44.webp",
            "width": 2400,
            "height": 1200,
            "mimetype": "webp",
            "is_label": false
          },
          {
            "id": 13,
            "original": "http://localhost:8000/media/images/original/2024/12/02/4aa3bfc9-e98b-4bba-8306-9028e03b51fe.webp",
            "thumbnail": "http://localhost:8000/media/images/thumbnail/2024/12/02/7a0723a3-4df0-4972-a17c-0e2fe8095730.webp",
            "width": 1400,
            "height": 800,
            "mimetype": "webp",
            "is_label": false
          },
          {
            "id": 12,
            "original": "http://localhost:8000/media/images/original/2024/12/02/a8064263-e3fc-4a5c-9e7a-e85d57c7dd44.webp",
            "thumbnail": "http://localhost:8000/media/images/thumbnail/2024/12/02/886550f1-568f-4ba7-870b-eedfde1a6fda.webp",
            "width": 1422,
            "height": 750,
            "mimetype": "webp",
            "is_label": false
          },
          {
            "id": 11,
            "original": "http://localhost:8000/media/images/original/2024/12/02/6eb73570-e9b7-4c29-ba27-231673327507.webp",
            "thumbnail": "http://localhost:8000/media/images/thumbnail/2024/12/02/0b7fe0d2-9466-492b-8d54-d90a9696ec97.webp",
            "width": 1920,
            "height": 1080,
            "mimetype": "webp",
            "is_label": false
          },
          {
            "id": 10,
            "original": "http://localhost:8000/media/images/original/2024/12/02/3481ec0a-2420-4a56-94b9-9cb8a7f764c7.webp",
            "thumbnail": "http://localhost:8000/media/images/thumbnail/2024/12/02/2568b36d-0e4c-43ac-8a19-3009a0fef779.webp",
            "width": 1400,
            "height": 800,
            "mimetype": "webp",
            "is_label": false
          },
          {
            "id": 9,
            "original": "http://localhost:8000/media/images/original/2024/12/02/4793a419-0d57-4733-96d7-400241e5160c.webp",
            "thumbnail": "http://localhost:8000/media/images/thumbnail/2024/12/02/f2b48789-268d-4a13-8805-cfa4ec6a29bb.webp",
            "width": 1400,
            "height": 800,
            "mimetype": "webp",
            "is_label": false
          },
          {
            "id": 8,
            "original": "http://localhost:8000/media/images/original/2024/12/02/bb952a98-b18c-4959-b2e9-35c8308cb769.webp",
            "thumbnail": "http://localhost:8000/media/images/thumbnail/2024/12/02/3a350bdb-fde6-4274-9969-d8512e28ff85.webp",
            "width": 1920,
            "height": 1080,
            "mimetype": "webp",
            "is_label": false
          },
          {
            "id": 7,
            "original": "http://localhost:8000/media/images/original/2024/12/02/4ec81a6c-2807-4bcc-b371-4bcc76dd49e5.webp",
            "thumbnail": "http://localhost:8000/media/images/thumbnail/2024/12/02/f836b2c1-2c39-4c9b-b853-a910fbdf749b.webp",
            "width": 1920,
            "height": 1080,
            "mimetype": "webp",
            "is_label": false
          },
          {
            "id": 6,
            "original": "http://localhost:8000/media/images/original/2024/12/02/344cc05d-87b9-419a-97ba-41d5cea9775c.webp",
            "thumbnail": "http://localhost:8000/media/images/thumbnail/2024/12/02/baaba6cc-cc64-4522-80d1-be4a95865171.webp",
            "width": 1200,
            "height": 800,
            "mimetype": "webp",
            "is_label": false
          },
          {
            "id": 5,
            "original": "http://localhost:8000/media/images/original/2024/12/02/77c7e4a9-66b9-4daa-ad58-008c3ceeeddb.webp",
            "thumbnail": "http://localhost:8000/media/images/thumbnail/2024/12/02/65f4c16f-6bdd-432c-8ad6-4d8fff9c3591.webp",
            "width": 2400,
            "height": 1200,
            "mimetype": "webp",
            "is_label": false
          },
          {
            "id": 4,
            "original": "http://localhost:8000/media/images/original/2024/12/02/ebf18c07-748d-4a6f-b1a9-b7985ba356ae.webp",
            "thumbnail": "http://localhost:8000/media/images/thumbnail/2024/12/02/57243f1a-41a8-426a-914b-1b70a83cd5a5.webp",
            "width": 1422,
            "height": 750,
            "mimetype": "webp",
            "is_label": false
          },
          {
            "id": 3,
            "original": "http://localhost:8000/media/images/original/2024/12/02/63705aca-5084-4d33-96ab-b3c6368ae81b.webp",
            "thumbnail": "http://localhost:8000/media/images/thumbnail/2024/12/02/0607d277-11c4-4d09-a520-3218f5f410d4.webp",
            "width": 2000,
            "height": 1500,
            "mimetype": "webp",
            "is_label": false
          },
          {
            "id": 1,
            "original": "http://localhost:8000/media/images/original/2024/12/02/93ad9109-0dc0-4185-a550-426d0e8a0e4d.webp",
            "thumbnail": "http://localhost:8000/media/images/thumbnail/2024/12/02/d19a0481-3405-47a8-a77e-a446e1ca8d47.webp",
            "width": 1200,
            "height": 800,
            "mimetype": "webp",
            "is_label": false
          }
        ]
      },
    ]
  }